[
    {
      "id": 1,
      "titulo": "El Señor de los Anillos",
      "autor": "J.R.R. Tolkien",
      "anho": "2000"
    },
    {
      "id": 2,
      "titulo": "Harry Potter y el caliz de fuego",
      "autor": "J.K. Rowling",
      "anho": "2000"
    },
    {
      "id": 3,
      "titulo": "El diario de Ana Frank",
      "autor": "Ana Frank",
      "anho": "1950"
    },
    {
      "id": 4,
      "titulo": "Yo el Supremo",
      "autor": "Augusto Roa Bstos",
      "anho": "1970"
    },
    {
      "id": 5,
      "titulo": "Cien años de soledad",
      "autor": "Gabriel García Márquez",
      "anho": "2000"
    }
  ]
  